{
 "instructors" : {
	"1" : ["Findlay Roberts"],
	"2" : ["Tane Ray"],
	"3" : ["Curtis Gittens"],
	"4" : ["Mechelle Gittens"],
	"5" : ["Joseph Hoade"],
	"6" : ["Roberta Messands"],
	"7" : ["George Eina"],
	"8" : ["Wesley Ford"],
	"9" : ["Jussiiala Kiind"],
	"10" : ["Morgan Stanley"],
	"11" : ["Thomas Edward"],
	"12" : ["Margo Holder"],
	"13" : ["Hussein Thompson"],
	"14" : ["Dwaine Clarke"],
	"15" : ["John Charlery"],
	"16" : ["Jeffrey Elcock"],
	"17" : ["Carlos Hunte"],
	"18" : ["Peter Chami"],
	"19" : ["Bernd Sing"],
	"20" : ["Smail Mahdi"],
	"21" : ["Jonathan Funk"],
	"22" : ["Adrian Als"],
	"23" : ["Paul Walcott"],
	"24" : ["Tessa King-Inniss"],
	"25" : ["Upindranath Singh"]
  }
}